2.000000000000000000e+00
2.040201005025125802e+00
2.080402010050251160e+00
2.120603015075376963e+00
2.160804020100502321e+00
2.201005025125628123e+00
2.241206030150753925e+00
2.281407035175879283e+00
2.321608040201005085e+00
2.361809045226130443e+00
2.402010050251256246e+00
2.442211055276382048e+00
2.482412060301507406e+00
2.522613065326633208e+00
2.562814070351758566e+00
2.603015075376884369e+00
2.643216080402010171e+00
2.683417085427135529e+00
2.723618090452261331e+00
2.763819095477386689e+00
2.804020100502512491e+00
2.844221105527638294e+00
2.884422110552764096e+00
2.924623115577889454e+00
2.964824120603014812e+00
3.005025125628140614e+00
3.045226130653266416e+00
3.085427135678392219e+00
3.125628140703517577e+00
3.165829145728642935e+00
3.206030150753768737e+00
3.246231155778894539e+00
3.286432160804020342e+00
3.326633165829145700e+00
3.366834170854271058e+00
3.407035175879396860e+00
3.447236180904522662e+00
3.487437185929648464e+00
3.527638190954773822e+00
3.567839195979899625e+00
3.608040201005024983e+00
3.648241206030150785e+00
3.688442211055276587e+00
3.728643216080401945e+00
3.768844221105527748e+00
3.809045226130653106e+00
3.849246231155778908e+00
3.889447236180904710e+00
3.929648241206030068e+00
3.969849246231155870e+00
4.010050251256281229e+00
4.050251256281407031e+00
4.090452261306532833e+00
4.130653266331657747e+00
4.170854271356784437e+00
4.211055276381909351e+00
4.251256281407035154e+00
4.291457286432160956e+00
4.331658291457285870e+00
4.371859296482412560e+00
4.412060301507537474e+00
4.452261306532663276e+00
4.492462311557789079e+00
4.532663316582913993e+00
4.572864321608040683e+00
4.613065326633165597e+00
4.653266331658291399e+00
4.693467336683417201e+00
4.733668341708542115e+00
4.773869346733668806e+00
4.814070351758793720e+00
4.854271356783919522e+00
4.894472361809045324e+00
4.934673366834170238e+00
4.974874371859296929e+00
5.015075376884421843e+00
5.055276381909547645e+00
5.095477386934673447e+00
5.135678391959799249e+00
5.175879396984925052e+00
5.216080402010049966e+00
5.256281407035175768e+00
5.296482412060301570e+00
5.336683417085427372e+00
5.376884422110553174e+00
5.417085427135678088e+00
5.457286432160803891e+00
5.497487437185929693e+00
5.537688442211055495e+00
5.577889447236181297e+00
5.618090452261306211e+00
5.658291457286432014e+00
5.698492462311557816e+00
5.738693467336683618e+00
5.778894472361809420e+00
5.819095477386934334e+00
5.859296482412060136e+00
5.899497487437185939e+00
5.939698492462311741e+00
5.979899497487437543e+00
6.020100502512562457e+00
6.060301507537688259e+00
6.100502512562814061e+00
6.140703517587939864e+00
6.180904522613065666e+00
6.221105527638190580e+00
6.261306532663316382e+00
6.301507537688442184e+00
6.341708542713567986e+00
6.381909547738693789e+00
6.422110552763819591e+00
6.462311557788944505e+00
6.502512562814070307e+00
6.542713567839196109e+00
6.582914572864321912e+00
6.623115577889447714e+00
6.663316582914572628e+00
6.703517587939698430e+00
6.743718592964824232e+00
6.783919597989950034e+00
6.824120603015075837e+00
6.864321608040200751e+00
6.904522613065326553e+00
6.944723618090452355e+00
6.984924623115578157e+00
7.025125628140703959e+00
7.065326633165828873e+00
7.105527638190954676e+00
7.145728643216080478e+00
7.185929648241206280e+00
7.226130653266332082e+00
7.266331658291456996e+00
7.306532663316582799e+00
7.346733668341708601e+00
7.386934673366834403e+00
7.427135678391960205e+00
7.467336683417085119e+00
7.507537688442210921e+00
7.547738693467336724e+00
7.587939698492462526e+00
7.628140703517588328e+00
7.668341708542713242e+00
7.708542713567839044e+00
7.748743718592964846e+00
7.788944723618090649e+00
7.829145728643216451e+00
7.869346733668341365e+00
7.909547738693467167e+00
7.949748743718592969e+00
7.989949748743718771e+00
8.030150753768843686e+00
8.070351758793970376e+00
8.110552763819095290e+00
8.150753768844221980e+00
8.190954773869346894e+00
8.231155778894471808e+00
8.271356783919598499e+00
8.311557788944723413e+00
8.351758793969850103e+00
8.391959798994975017e+00
8.432160804020099931e+00
8.472361809045226622e+00
8.512562814070351536e+00
8.552763819095478226e+00
8.592964824120603140e+00
8.633165829145728054e+00
8.673366834170854744e+00
8.713567839195979658e+00
8.753768844221106349e+00
8.793969849246231263e+00
8.834170854271356177e+00
8.874371859296482867e+00
8.914572864321607781e+00
8.954773869346734472e+00
8.994974874371859386e+00
9.035175879396984300e+00
9.075376884422110990e+00
9.115577889447235904e+00
9.155778894472362595e+00
9.195979899497487509e+00
9.236180904522612423e+00
9.276381909547739113e+00
9.316582914572864027e+00
9.356783919597990717e+00
9.396984924623115631e+00
9.437185929648240545e+00
9.477386934673367236e+00
9.517587939698492150e+00
9.557788944723618840e+00
9.597989949748743754e+00
9.638190954773868668e+00
9.678391959798995359e+00
9.718592964824120273e+00
9.758793969849246963e+00
9.798994974874371877e+00
9.839195979899496791e+00
9.879396984924623482e+00
9.919597989949750172e+00
9.959798994974875086e+00
1.000000000000000000e+01
